{
    "Latin":"Salve Regína, mater misericórdiæ, vita, dulcédo, et spes nostra, salve. Ad te clamámus éxsules fílii Hevae. Ad te suspirámus, geméntes et flentes in hac lacrimárum valle. Eia, ergo, advocáta nostra, illos tuos misericórdes óculos ad nos convérte. Et Iesum, benedíctum fructum ventris tui, nobis post hoc exsílium osténde. O clemens, O pia, O dulcis Virgo Maria. Ora pro nobis, sancta Dei Génetrix. Ut digni efficiámur promissiónibus Christi, Amen.",
    "English":"Hail holy Queen, Mother of mercy, our life, our sweetness, and our hope. To thee do we cry, poor banished children of Eve. To thee do we send up our sighs, mourning and weeping in this valley of tears. Turn then, most gracious Advocate, thine eyes of mercy toward us. And after this our exile show unto us the blessed fruit of thy womb, Jesus. O clement, O loving, O sweet Virgin Mary Pray for us, O Holy Mother of God. That we may be made worthy of the promises of Christ. Amen.",
    "AudioFile":"SalveRegina.ogg",
    "EnglishName":"Hail Holy Queen",
    "LatinName":"Salve Regina",
    "Groups":["Marian", "Rosary"]
}
