{
    "Latin":"In nómine Patris, et Fílii, et Spíritus Sancti. Amen.",
    "English":"In the name of the Father, and the Son and the Holy Spirit. Amen.",
    "AudioFile":"SignumCrucis.ogg",
    "EnglishName":"Sign of the Cross",
    "LatinName":"Signum Crucis",
    "Groups":["Basic", "Rosary", "Breviary"]
}
